<?xml version="1.0" encoding="UTF-8"?>
<!--Generator: Apple Native CoreSVG 123-->
<!DOCTYPE svg
PUBLIC "-//W3C//DTD SVG 1.1//EN"
       "http://www.w3.org/Graphics/SVG/1.1/DTD/svg11.dtd">
<svg version="1.1" xmlns="http://www.w3.org/2000/svg" xmlns:xlink="http://www.w3.org/1999/xlink" width="3300" height="2200">
 <!--glyph: "uni10003A.medium", point size: 100.000000, font version: "Version 15.0d7e11", template writer version: "5"-->
 <g id="Notes">
  <rect height="2200" id="artboard" style="fill:white;opacity:1" width="3300" x="0" y="0"/>
  <line id="" style="fill:none;stroke:black;opacity:1;stroke-width:0.5;" x1="263" x2="3036" y1="292" y2="292"/>
  <text style="stroke:none;fill:black;font-family:-apple-system,&quot;SF Pro Display&quot;,&quot;SF Pro Text&quot;,Helvetica,sans-serif;font-weight:bold;" transform="matrix(1 0 0 1 263 322)">Weight/Scale Variations</text>
  <text style="stroke:none;fill:black;font-family:-apple-system,&quot;SF Pro Display&quot;,&quot;SF Pro Text&quot;,Helvetica,sans-serif;text-anchor:middle;" transform="matrix(1 0 0 1 559.711 322)">Ultralight</text>
  <text style="stroke:none;fill:black;font-family:-apple-system,&quot;SF Pro Display&quot;,&quot;SF Pro Text&quot;,Helvetica,sans-serif;text-anchor:middle;" transform="matrix(1 0 0 1 856.422 322)">Thin</text>
  <text style="stroke:none;fill:black;font-family:-apple-system,&quot;SF Pro Display&quot;,&quot;SF Pro Text&quot;,Helvetica,sans-serif;text-anchor:middle;" transform="matrix(1 0 0 1 1153.13 322)">Light</text>
  <text style="stroke:none;fill:black;font-family:-apple-system,&quot;SF Pro Display&quot;,&quot;SF Pro Text&quot;,Helvetica,sans-serif;text-anchor:middle;" transform="matrix(1 0 0 1 1449.84 322)">Regular</text>
  <text style="stroke:none;fill:black;font-family:-apple-system,&quot;SF Pro Display&quot;,&quot;SF Pro Text&quot;,Helvetica,sans-serif;text-anchor:middle;" transform="matrix(1 0 0 1 1746.56 322)">Medium</text>
  <text style="stroke:none;fill:black;font-family:-apple-system,&quot;SF Pro Display&quot;,&quot;SF Pro Text&quot;,Helvetica,sans-serif;text-anchor:middle;" transform="matrix(1 0 0 1 2043.27 322)">Semibold</text>
  <text style="stroke:none;fill:black;font-family:-apple-system,&quot;SF Pro Display&quot;,&quot;SF Pro Text&quot;,Helvetica,sans-serif;text-anchor:middle;" transform="matrix(1 0 0 1 2339.98 322)">Bold</text>
  <text style="stroke:none;fill:black;font-family:-apple-system,&quot;SF Pro Display&quot;,&quot;SF Pro Text&quot;,Helvetica,sans-serif;text-anchor:middle;" transform="matrix(1 0 0 1 2636.69 322)">Heavy</text>
  <text style="stroke:none;fill:black;font-family:-apple-system,&quot;SF Pro Display&quot;,&quot;SF Pro Text&quot;,Helvetica,sans-serif;text-anchor:middle;" transform="matrix(1 0 0 1 2933.4 322)">Black</text>
  <line id="" style="fill:none;stroke:black;opacity:1;stroke-width:0.5;" x1="263" x2="3036" y1="1903" y2="1903"/>
  <g id="" transform="matrix(1 0 0 1 263 1933)">
   <path d="M 9.24805 0.830078 C 13.5547 0.830078 17.1387 -2.74414 17.1387 -7.05078 C 17.1387 -11.3574 13.5449 -14.9316 9.23828 -14.9316 C 4.94141 -14.9316 1.36719 -11.3574 1.36719 -7.05078 C 1.36719 -2.74414 4.95117 0.830078 9.24805 0.830078 Z M 9.24805 -0.654297 C 5.70312 -0.654297 2.87109 -3.49609 2.87109 -7.05078 C 2.87109 -10.6055 5.69336 -13.4473 9.23828 -13.4473 C 12.793 -13.4473 15.6348 -10.6055 15.6445 -7.05078 C 15.6543 -3.49609 12.8027 -0.654297 9.24805 -0.654297 Z M 9.22852 -3.42773 C 9.69727 -3.42773 9.9707 -3.74023 9.9707 -4.25781 L 9.9707 -6.31836 L 12.1973 -6.31836 C 12.6953 -6.31836 13.0371 -6.57227 13.0371 -7.04102 C 13.0371 -7.51953 12.7148 -7.7832 12.1973 -7.7832 L 9.9707 -7.7832 L 9.9707 -10.0098 C 9.9707 -10.5273 9.69727 -10.8496 9.22852 -10.8496 C 8.75977 -10.8496 8.50586 -10.5078 8.50586 -10.0098 L 8.50586 -7.7832 L 6.29883 -7.7832 C 5.78125 -7.7832 5.44922 -7.51953 5.44922 -7.04102 C 5.44922 -6.57227 5.80078 -6.31836 6.29883 -6.31836 L 8.50586 -6.31836 L 8.50586 -4.25781 C 8.50586 -3.75977 8.75977 -3.42773 9.22852 -3.42773 Z"/>
  </g>
  <g id="" transform="matrix(1 0 0 1 281.506 1933)">
   <path d="M 11.709 2.91016 C 17.1582 2.91016 21.6699 -1.60156 21.6699 -7.05078 C 21.6699 -12.4902 17.1484 -17.0117 11.6992 -17.0117 C 6.25977 -17.0117 1.74805 -12.4902 1.74805 -7.05078 C 1.74805 -1.60156 6.26953 2.91016 11.709 2.91016 Z M 11.709 1.25 C 7.09961 1.25 3.41797 -2.44141 3.41797 -7.05078 C 3.41797 -11.6504 7.08984 -15.3516 11.6992 -15.3516 C 16.3086 -15.3516 20 -11.6504 20.0098 -7.05078 C 20.0195 -2.44141 16.3184 1.25 11.709 1.25 Z M 11.6895 -2.41211 C 12.207 -2.41211 12.5195 -2.77344 12.5195 -3.33984 L 12.5195 -6.23047 L 15.5762 -6.23047 C 16.123 -6.23047 16.5039 -6.51367 16.5039 -7.03125 C 16.5039 -7.55859 16.1426 -7.86133 15.5762 -7.86133 L 12.5195 -7.86133 L 12.5195 -10.9277 C 12.5195 -11.5039 12.207 -11.8555 11.6895 -11.8555 C 11.1719 -11.8555 10.8789 -11.4844 10.8789 -10.9277 L 10.8789 -7.86133 L 7.83203 -7.86133 C 7.26562 -7.86133 6.89453 -7.55859 6.89453 -7.03125 C 6.89453 -6.51367 7.28516 -6.23047 7.83203 -6.23047 L 10.8789 -6.23047 L 10.8789 -3.33984 C 10.8789 -2.79297 11.1719 -2.41211 11.6895 -2.41211 Z"/>
  </g>
  <g id="" transform="matrix(1 0 0 1 304.924 1933)">
   <path d="M 14.9707 5.67383 C 21.9336 5.67383 27.6953 -0.078125 27.6953 -7.04102 C 27.6953 -14.0039 21.9238 -19.7559 14.9609 -19.7559 C 8.00781 -19.7559 2.25586 -14.0039 2.25586 -7.04102 C 2.25586 -0.078125 8.01758 5.67383 14.9707 5.67383 Z M 14.9707 3.85742 C 8.93555 3.85742 4.08203 -1.00586 4.08203 -7.04102 C 4.08203 -13.0762 8.92578 -17.9395 14.9609 -17.9395 C 21.0059 -17.9395 25.8594 -13.0762 25.8691 -7.04102 C 25.8789 -1.00586 21.0156 3.85742 14.9707 3.85742 Z M 14.9512 -1.06445 C 15.5176 -1.06445 15.8691 -1.45508 15.8691 -2.06055 L 15.8691 -6.13281 L 20.1074 -6.13281 C 20.6934 -6.13281 21.1133 -6.46484 21.1133 -7.02148 C 21.1133 -7.59766 20.7227 -7.93945 20.1074 -7.93945 L 15.8691 -7.93945 L 15.8691 -12.1875 C 15.8691 -12.8027 15.5176 -13.1934 14.9512 -13.1934 C 14.3848 -13.1934 14.0625 -12.7832 14.0625 -12.1875 L 14.0625 -7.93945 L 9.83398 -7.93945 C 9.21875 -7.93945 8.80859 -7.59766 8.80859 -7.02148 C 8.80859 -6.46484 9.23828 -6.13281 9.83398 -6.13281 L 14.0625 -6.13281 L 14.0625 -2.06055 C 14.0625 -1.47461 14.3848 -1.06445 14.9512 -1.06445 Z"/>
  </g>
  <text style="stroke:none;fill:black;font-family:-apple-system,&quot;SF Pro Display&quot;,&quot;SF Pro Text&quot;,Helvetica,sans-serif;font-weight:bold;" transform="matrix(1 0 0 1 263 1953)">Design Variations</text>
  <text style="stroke:none;fill:black;font-family:-apple-system,&quot;SF Pro Display&quot;,&quot;SF Pro Text&quot;,Helvetica,sans-serif;" transform="matrix(1 0 0 1 263 1971)">Symbols are supported in up to nine weights and three scales.</text>
  <text style="stroke:none;fill:black;font-family:-apple-system,&quot;SF Pro Display&quot;,&quot;SF Pro Text&quot;,Helvetica,sans-serif;" transform="matrix(1 0 0 1 263 1989)">For optimal layout with text and other symbols, vertically align</text>
  <text style="stroke:none;fill:black;font-family:-apple-system,&quot;SF Pro Display&quot;,&quot;SF Pro Text&quot;,Helvetica,sans-serif;" transform="matrix(1 0 0 1 263 2007)">symbols with the adjacent text.</text>
  <rect height="14" id="" style="fill:#00AEEF;stroke:none;opacity:0.4;" width="3" x="776" y="1919"/>
  <g id="" transform="matrix(1 0 0 1 779 1933)">
   <path d="M 10.5273 0 L 12.373 0 L 7.17773 -14.0918 L 5.43945 -14.0918 L 0.244141 0 L 2.08984 0 L 3.50586 -4.0332 L 9.11133 -4.0332 Z M 6.2793 -11.9531 L 6.33789 -11.9531 L 8.59375 -5.52734 L 4.02344 -5.52734 Z"/>
  </g>
  <rect height="14" id="" style="fill:#00AEEF;stroke:none;opacity:0.4;" width="3" x="791.617" y="1919"/>
  <text style="stroke:none;fill:black;font-family:-apple-system,&quot;SF Pro Display&quot;,&quot;SF Pro Text&quot;,Helvetica,sans-serif;font-weight:bold;" transform="matrix(1 0 0 1 776 1953)">Margins</text>
  <text style="stroke:none;fill:black;font-family:-apple-system,&quot;SF Pro Display&quot;,&quot;SF Pro Text&quot;,Helvetica,sans-serif;" transform="matrix(1 0 0 1 776 1971)">Leading and trailing margins on the left and right side of each symbol</text>
  <text style="stroke:none;fill:black;font-family:-apple-system,&quot;SF Pro Display&quot;,&quot;SF Pro Text&quot;,Helvetica,sans-serif;" transform="matrix(1 0 0 1 776 1989)">can be adjusted by modifying the width of the blue rectangles.</text>
  <text style="stroke:none;fill:black;font-family:-apple-system,&quot;SF Pro Display&quot;,&quot;SF Pro Text&quot;,Helvetica,sans-serif;" transform="matrix(1 0 0 1 776 2007)">Modifications are automatically applied proportionally to all</text>
  <text style="stroke:none;fill:black;font-family:-apple-system,&quot;SF Pro Display&quot;,&quot;SF Pro Text&quot;,Helvetica,sans-serif;" transform="matrix(1 0 0 1 776 2025)">scales and weights.</text>
  <g id="" transform="matrix(1 0 0 1 1289 1933)">
   <path d="M 2.83203 3.11523 L 4.375 4.6582 C 5.22461 5.48828 6.19141 5.41992 7.06055 4.46289 L 17.2754 -6.66016 C 17.7051 -6.36719 18.0957 -6.37695 18.5645 -6.47461 L 19.6094 -6.68945 L 20.3027 -5.99609 L 20.2539 -5.47852 C 20.1855 -4.95117 20.3516 -4.53125 20.8496 -4.0332 L 21.6602 -3.22266 C 22.168 -2.71484 22.8223 -2.68555 23.3008 -3.16406 L 26.5527 -6.41602 C 27.0312 -6.89453 27.0117 -7.54883 26.5039 -8.05664 L 25.6836 -8.87695 C 25.1855 -9.375 24.7754 -9.55078 24.2383 -9.47266 L 23.7109 -9.41406 L 23.0566 -10.0781 L 23.3398 -11.2207 C 23.4863 -11.7871 23.3398 -12.2559 22.7148 -12.8613 L 20.3027 -15.2539 C 16.7578 -18.7793 12.2266 -18.6719 9.11133 -15.5371 C 8.69141 -15.1074 8.64258 -14.5215 8.91602 -14.0918 C 9.15039 -13.7207 9.62891 -13.4961 10.2734 -13.6621 C 11.7871 -14.043 13.3008 -13.9258 14.7852 -12.9199 L 14.1602 -11.3379 C 13.9258 -10.752 13.9453 -10.2734 14.1797 -9.83398 L 3.01758 0.439453 C 2.08008 1.30859 1.97266 2.25586 2.83203 3.11523 Z M 10.6738 -15.1465 C 13.3398 -17.1387 16.6504 -16.8262 19.0527 -14.4141 L 21.6797 -11.8066 C 21.9141 -11.5723 21.9434 -11.3867 21.8848 -11.0938 L 21.5039 -9.53125 L 23.0762 -7.95898 L 24.043 -8.04688 C 24.3262 -8.07617 24.4141 -8.05664 24.6387 -7.83203 L 25.2637 -7.20703 L 22.5098 -4.46289 L 21.8848 -5.07812 C 21.6602 -5.30273 21.6406 -5.40039 21.6699 -5.68359 L 21.7578 -6.64062 L 20.1953 -8.20312 L 18.5742 -7.89062 C 18.291 -7.83203 18.1445 -7.83203 17.9102 -8.07617 L 15.7324 -10.2539 C 15.5078 -10.4883 15.4785 -10.625 15.6055 -10.9473 L 16.5527 -13.2227 C 14.9512 -14.7559 12.8418 -15.6055 10.8008 -14.9512 C 10.7129 -14.9219 10.6445 -14.9414 10.6152 -14.9805 C 10.5859 -15.0293 10.5859 -15.0781 10.6738 -15.1465 Z M 4.10156 2.41211 C 3.61328 1.91406 3.78906 1.61133 4.12109 1.30859 L 15.0781 -8.80859 L 16.3086 -7.57812 L 6.15234 3.34961 C 5.84961 3.68164 5.46875 3.7793 5.06836 3.37891 Z"/>
  </g>
  <text style="stroke:none;fill:black;font-family:-apple-system,&quot;SF Pro Display&quot;,&quot;SF Pro Text&quot;,Helvetica,sans-serif;font-weight:bold;" transform="matrix(1 0 0 1 1289 1953)">Exporting</text>
  <text style="stroke:none;fill:black;font-family:-apple-system,&quot;SF Pro Display&quot;,&quot;SF Pro Text&quot;,Helvetica,sans-serif;" transform="matrix(1 0 0 1 1289 1971)">Symbols should be outlined when exporting to ensure the</text>
  <text style="stroke:none;fill:black;font-family:-apple-system,&quot;SF Pro Display&quot;,&quot;SF Pro Text&quot;,Helvetica,sans-serif;" transform="matrix(1 0 0 1 1289 1989)">design is preserved when submitting to Xcode.</text>
  <text id="template-version" style="stroke:none;fill:black;font-family:-apple-system,&quot;SF Pro Display&quot;,&quot;SF Pro Text&quot;,Helvetica,sans-serif;text-anchor:end;" transform="matrix(1 0 0 1 3036 1933)">Template v.1.0</text>
  <text style="stroke:none;fill:black;font-family:-apple-system,&quot;SF Pro Display&quot;,&quot;SF Pro Text&quot;,Helvetica,sans-serif;text-anchor:end;" transform="matrix(1 0 0 1 3036 1951)">Generated from 1.circle</text>
  <text style="stroke:none;fill:black;font-family:-apple-system,&quot;SF Pro Display&quot;,&quot;SF Pro Text&quot;,Helvetica,sans-serif;text-anchor:end;" transform="matrix(1 0 0 1 3036 1969)">Typeset at 100 points</text>
  <text style="stroke:none;fill:black;font-family:-apple-system,&quot;SF Pro Display&quot;,&quot;SF Pro Text&quot;,Helvetica,sans-serif;" transform="matrix(1 0 0 1 263 726)">Small</text>
  <text style="stroke:none;fill:black;font-family:-apple-system,&quot;SF Pro Display&quot;,&quot;SF Pro Text&quot;,Helvetica,sans-serif;" transform="matrix(1 0 0 1 263 1156)">Medium</text>
  <text style="stroke:none;fill:black;font-family:-apple-system,&quot;SF Pro Display&quot;,&quot;SF Pro Text&quot;,Helvetica,sans-serif;" transform="matrix(1 0 0 1 263 1586)">Large</text>
 </g>
 <g id="Guides">
  <g id="H-reference" style="fill:#27AAE1;stroke:none;" transform="matrix(1 0 0 1 339 696)">
   <path d="M 54.9316 0 L 57.666 0 L 30.5664 -70.459 L 28.0762 -70.459 L 0.976562 0 L 3.66211 0 L 12.9395 -24.4629 L 45.7031 -24.4629 Z M 29.1992 -67.0898 L 29.4434 -67.0898 L 44.8242 -26.709 L 13.8184 -26.709 Z"/>
  </g>
  <line id="Baseline-S" style="fill:none;stroke:#27AAE1;opacity:1;stroke-width:0.577;" x1="263" x2="3036" y1="696" y2="696"/>
  <line id="Capline-S" style="fill:none;stroke:#27AAE1;opacity:1;stroke-width:0.577;" x1="263" x2="3036" y1="625.541" y2="625.541"/>
  <g id="H-reference" style="fill:#27AAE1;stroke:none;" transform="matrix(1 0 0 1 339 1126)">
   <path d="M 54.9316 0 L 57.666 0 L 30.5664 -70.459 L 28.0762 -70.459 L 0.976562 0 L 3.66211 0 L 12.9395 -24.4629 L 45.7031 -24.4629 Z M 29.1992 -67.0898 L 29.4434 -67.0898 L 44.8242 -26.709 L 13.8184 -26.709 Z"/>
  </g>
  <line id="Baseline-M" style="fill:none;stroke:#27AAE1;opacity:1;stroke-width:0.577;" x1="263" x2="3036" y1="1126" y2="1126"/>
  <line id="Capline-M" style="fill:none;stroke:#27AAE1;opacity:1;stroke-width:0.577;" x1="263" x2="3036" y1="1055.54" y2="1055.54"/>
  <g id="H-reference" style="fill:#27AAE1;stroke:none;" transform="matrix(1 0 0 1 339 1556)">
   <path d="M 54.9316 0 L 57.666 0 L 30.5664 -70.459 L 28.0762 -70.459 L 0.976562 0 L 3.66211 0 L 12.9395 -24.4629 L 45.7031 -24.4629 Z M 29.1992 -67.0898 L 29.4434 -67.0898 L 44.8242 -26.709 L 13.8184 -26.709 Z"/>
  </g>
  <line id="Baseline-L" style="fill:none;stroke:#27AAE1;opacity:1;stroke-width:0.577;" x1="263" x2="3036" y1="1556" y2="1556"/>
  <line id="Capline-L" style="fill:none;stroke:#27AAE1;opacity:1;stroke-width:0.577;" x1="263" x2="3036" y1="1485.54" y2="1485.54"/>
  <rect height="119.336" id="left-margin" style="fill:#00AEEF;stroke:none;opacity:0.4;" width="8.74023" x="1391.3" y="1030.79"/>
  <rect height="119.336" id="right-margin" style="fill:#00AEEF;stroke:none;opacity:0.4;" width="8.74023" x="1499.65" y="1030.79"/>
 </g>
 <g id="Symbols">
  <g id="Black-L" transform="matrix(1 0 0 1 2854.05 1556)">
   <path d="M 79.3457 32.8613 C 116.748 32.8613 147.412 2.19727 147.412 -35.2051 C 147.412 -72.6074 116.748 -103.271 79.2969 -103.271 C 41.8945 -103.271 11.2793 -72.6074 11.2793 -35.2051 C 11.2793 2.19727 41.9434 32.8613 79.3457 32.8613 Z M 79.3457 12.4023 C 52.9785 12.4023 31.7383 -8.83789 31.7383 -35.2051 C 31.7383 -61.5723 52.9297 -82.8125 79.2969 -82.8125 C 105.664 -82.8125 126.953 -61.5723 126.953 -35.2051 C 127.002 -8.83789 105.713 12.4023 79.3457 12.4023 Z M 83.6914 -6.5918 C 89.4531 -6.5918 93.3105 -9.66797 93.3105 -16.5527 L 93.3105 -53.9551 C 93.3105 -59.9121 88.8184 -63.9648 82.373 -63.9648 C 78.2715 -63.9648 75 -62.8906 70.752 -60.1074 L 61.4258 -53.9551 C 58.6914 -52.1973 57.4219 -50.2441 57.4219 -47.2656 C 57.4219 -43.6035 60.0098 -40.7715 63.623 -40.7715 C 65.1855 -40.7715 66.1621 -40.9668 68.3594 -42.4316 L 73.584 -45.8984 L 74.1699 -45.8984 L 74.1699 -16.5527 C 74.1699 -9.66797 77.9785 -6.5918 83.6914 -6.5918 Z"/>
  </g>
  <g id="Heavy-L" transform="matrix(1 0 0 1 2558.39 1556)">
   <path d="M 78.2715 31.7871 C 115.088 31.7871 145.312 1.61133 145.312 -35.2051 C 145.312 -72.0215 115.039 -102.197 78.2715 -102.197 C 41.4551 -102.197 11.2793 -72.0215 11.2793 -35.2051 C 11.2793 1.61133 41.5039 31.7871 78.2715 31.7871 Z M 78.2715 14.0137 C 51.0254 14.0137 29.0527 -7.95898 29.0527 -35.2051 C 29.0527 -62.5 50.9766 -84.4727 78.2715 -84.4727 C 105.518 -84.4727 127.49 -62.5 127.539 -35.2051 C 127.539 -7.95898 105.566 14.0137 78.2715 14.0137 Z M 82.3242 -6.5918 C 87.3535 -6.5918 90.7227 -9.375 90.7227 -15.3809 L 90.7227 -55.1758 C 90.7227 -60.4492 86.8652 -63.916 81.25 -63.916 C 77.6367 -63.916 74.8047 -62.9883 71.0449 -60.498 L 61.084 -53.9062 C 58.7402 -52.3438 57.6172 -50.6836 57.6172 -48.0957 C 57.6172 -44.873 59.9121 -42.334 63.0859 -42.334 C 64.502 -42.334 65.3809 -42.5293 67.334 -43.8477 L 73.4863 -47.9004 L 74.0234 -47.9004 L 74.0234 -15.3809 C 74.0234 -9.375 77.3438 -6.5918 82.3242 -6.5918 Z"/>
  </g>
  <g id="Bold-L" transform="matrix(1 0 0 1 2262.88 1556)">
   <path d="M 77.0996 30.6152 C 113.232 30.6152 142.92 0.878906 142.92 -35.2051 C 142.92 -71.3379 113.184 -101.025 77.0508 -101.025 C 40.9668 -101.025 11.2793 -71.3379 11.2793 -35.2051 C 11.2793 0.878906 41.0156 30.6152 77.0996 30.6152 Z M 77.0996 15.8691 C 48.8281 15.8691 26.0742 -6.93359 26.0742 -35.2051 C 26.0742 -63.4766 48.7793 -86.2793 77.0508 -86.2793 C 105.371 -86.2793 128.125 -63.4766 128.174 -35.2051 C 128.174 -6.93359 105.371 15.8691 77.0996 15.8691 Z M 80.8105 -6.64062 C 85.0586 -6.64062 87.793 -9.08203 87.793 -14.0137 L 87.793 -56.4941 C 87.793 -61.0352 84.668 -63.916 79.9805 -63.916 C 76.9531 -63.916 74.6094 -63.1348 71.3379 -60.9375 L 60.7422 -53.9062 C 58.7402 -52.5879 57.8613 -51.1719 57.8613 -48.9746 C 57.8613 -46.2891 59.8633 -44.0918 62.5488 -44.0918 C 63.7695 -44.0918 64.5508 -44.2871 66.2109 -45.4102 L 73.3887 -50.1465 L 73.9258 -50.1465 L 73.9258 -14.0137 C 73.9258 -9.08203 76.6113 -6.64062 80.8105 -6.64062 Z"/>
  </g>
  <g id="Semibold-L" transform="matrix(1 0 0 1 1966.97 1556)">
   <path d="M 76.2695 29.7852 C 111.914 29.7852 141.309 0.439453 141.309 -35.2051 C 141.309 -70.8496 111.865 -100.244 76.2695 -100.244 C 40.625 -100.244 11.2793 -70.8496 11.2793 -35.2051 C 11.2793 0.439453 40.6738 29.7852 76.2695 29.7852 Z M 76.2695 17.0898 C 47.3145 17.0898 24.0234 -6.25 24.0234 -35.2051 C 24.0234 -64.209 47.2656 -87.5 76.2695 -87.5 C 105.225 -87.5 128.564 -64.209 128.613 -35.2051 C 128.662 -6.25 105.273 17.0898 76.2695 17.0898 Z M 79.7363 -6.64062 C 83.4473 -6.64062 85.791 -8.83789 85.791 -13.0859 L 85.791 -57.4219 C 85.791 -61.4258 83.1543 -63.916 79.1504 -63.916 C 76.4648 -63.916 74.4629 -63.2324 71.5332 -61.2305 L 60.498 -53.8574 C 58.7891 -52.7344 58.0566 -51.5137 58.0566 -49.6094 C 58.0566 -47.2656 59.8145 -45.3125 62.1582 -45.3125 C 63.2324 -45.3125 63.916 -45.459 65.4297 -46.4844 L 73.3398 -51.6602 L 73.8281 -51.6602 L 73.8281 -13.0859 C 73.8281 -8.83789 76.123 -6.64062 79.7363 -6.64062 Z"/>
  </g>
  <g id="Medium-L" transform="matrix(1 0 0 1 1670.87 1556)">
   <path d="M 75.6836 29.1992 C 110.938 29.1992 140.088 0.0488281 140.088 -35.2051 C 140.088 -70.459 110.889 -99.6094 75.6348 -99.6094 C 40.3809 -99.6094 11.2793 -70.459 11.2793 -35.2051 C 11.2793 0.0488281 40.3809 29.1992 75.6836 29.1992 Z M 75.6836 18.0664 C 46.1426 18.0664 22.4609 -5.71289 22.4609 -35.2051 C 22.4609 -64.6973 46.1426 -88.4766 75.6348 -88.4766 C 105.127 -88.4766 128.906 -64.6973 128.906 -35.2051 C 128.955 -5.71289 105.176 18.0664 75.6836 18.0664 Z M 78.9551 -6.64062 C 82.2754 -6.64062 84.2285 -8.69141 84.2285 -12.4023 L 84.2285 -58.1055 C 84.2285 -61.7188 82.0312 -63.916 78.4668 -63.916 C 76.123 -63.916 74.3652 -63.2812 71.6797 -61.4746 L 60.3027 -53.8574 C 58.7891 -52.832 58.1543 -51.7578 58.1543 -50.0977 C 58.1543 -48.0469 59.7656 -46.2402 61.8652 -46.2402 C 62.8418 -46.2402 63.4766 -46.3867 64.8438 -47.3145 L 73.291 -52.832 L 73.7305 -52.832 L 73.7305 -12.4023 C 73.7305 -8.69141 75.7324 -6.64062 78.9551 -6.64062 Z"/>
  </g>
  <g id="Regular-L" transform="matrix(1 0 0 1 1374.97 1556)">
   <path d="M 74.8535 28.3691 C 109.668 28.3691 138.477 -0.390625 138.477 -35.2051 C 138.477 -70.0195 109.619 -98.7793 74.8047 -98.7793 C 40.0391 -98.7793 11.2793 -70.0195 11.2793 -35.2051 C 11.2793 -0.390625 40.0879 28.3691 74.8535 28.3691 Z M 74.8535 19.2871 C 44.6777 19.2871 20.4102 -5.0293 20.4102 -35.2051 C 20.4102 -65.3809 44.6289 -89.6973 74.8047 -89.6973 C 105.029 -89.6973 129.297 -65.3809 129.346 -35.2051 C 129.395 -5.0293 105.078 19.2871 74.8535 19.2871 Z M 77.8809 -6.68945 C 80.6641 -6.68945 82.2754 -8.49609 82.2754 -11.4746 L 82.2754 -59.0332 C 82.2754 -62.1582 80.5176 -63.916 77.6367 -63.916 C 75.6348 -63.916 74.2188 -63.3789 71.875 -61.7676 L 60.0586 -53.8086 C 58.8379 -52.9785 58.3496 -52.0996 58.3496 -50.7324 C 58.3496 -48.9746 59.7168 -47.4121 61.4746 -47.4121 C 62.3047 -47.4121 62.8906 -47.5586 64.0625 -48.3398 L 73.2422 -54.3945 L 73.6328 -54.3945 L 73.6328 -11.4746 C 73.6328 -8.49609 75.2441 -6.68945 77.8809 -6.68945 Z"/>
  </g>
  <g id="Light-L" transform="matrix(1 0 0 1 1079.18 1556)">
   <path d="M 73.9258 27.4902 C 108.301 27.4902 136.621 -0.830078 136.621 -35.1562 C 136.621 -69.5312 108.252 -97.8516 73.9258 -97.8516 C 39.5508 -97.8516 11.2793 -69.5312 11.2793 -35.1562 C 11.2793 -0.830078 39.5996 27.4902 73.9258 27.4902 Z M 73.9258 20.6055 C 43.1152 20.6055 18.2129 -4.3457 18.2129 -35.1562 C 18.2129 -66.0156 43.0664 -90.918 73.9258 -90.918 C 104.736 -90.918 129.688 -66.0156 129.736 -35.1562 C 129.736 -4.3457 104.785 20.6055 73.9258 20.6055 Z M 76.7578 -6.78711 C 78.9062 -6.78711 80.127 -8.20312 80.127 -10.4004 L 80.127 -60.0586 C 80.127 -62.4512 78.7109 -63.8184 76.4648 -63.8184 C 74.9512 -63.8184 73.7793 -63.3789 71.9727 -62.1094 L 59.4727 -53.8574 C 58.4473 -53.1738 58.0566 -52.4414 58.0566 -51.3672 C 58.0566 -49.9512 59.1797 -48.6816 60.6445 -48.6816 C 61.2793 -48.6816 61.7188 -48.7793 62.5488 -49.3652 L 73.0957 -56.2012 L 73.4863 -56.2012 L 73.4863 -10.4004 C 73.4863 -8.20312 74.7559 -6.78711 76.7578 -6.78711 Z"/>
  </g>
  <g id="Thin-L" transform="matrix(1 0 0 1 783.693 1556)">
   <path d="M 72.7051 26.3184 C 106.494 26.3184 134.18 -1.36719 134.18 -35.1074 C 134.18 -68.8965 106.494 -96.582 72.7051 -96.582 C 38.9648 -96.582 11.2793 -68.8965 11.2793 -35.1074 C 11.2793 -1.36719 38.9648 26.3184 72.7051 26.3184 Z M 72.7051 22.3145 C 41.0156 22.3145 15.2832 -3.41797 15.2832 -35.1074 C 15.2832 -66.8457 41.0156 -92.5781 72.7051 -92.5781 C 104.395 -92.5781 130.176 -66.8457 130.176 -35.1074 C 130.176 -3.41797 104.443 22.3145 72.7051 22.3145 Z M 75.293 -6.93359 C 76.5625 -6.93359 77.3438 -7.8125 77.3438 -9.0332 L 77.3438 -61.4258 C 77.3438 -62.8418 76.3184 -63.6719 74.9512 -63.6719 C 74.0234 -63.6719 73.2422 -63.4277 72.0703 -62.5488 L 58.6914 -53.9062 C 57.959 -53.4668 57.7148 -52.9297 57.7148 -52.1973 C 57.7148 -51.1719 58.4961 -50.3418 59.5215 -50.3418 C 59.9121 -50.3418 60.1562 -50.4395 60.5469 -50.6836 L 72.9492 -58.6914 L 73.2422 -58.6914 L 73.2422 -9.0332 C 73.2422 -7.8125 74.1211 -6.93359 75.293 -6.93359 Z"/>
  </g>
  <g id="Ultralight-L" transform="matrix(1 0 0 1 487.616 1556)">
   <path d="M 72.1191 25.7324 C 105.566 25.7324 132.91 -1.61133 132.91 -35.1074 C 132.91 -68.5547 105.566 -95.8984 72.1191 -95.8984 C 38.623 -95.8984 11.2793 -68.5547 11.2793 -35.1074 C 11.2793 -1.61133 38.623 25.7324 72.1191 25.7324 Z M 72.1191 23.2422 C 39.9414 23.2422 13.7695 -2.97852 13.7695 -35.1074 C 13.7695 -67.2363 39.9414 -93.4082 72.1191 -93.4082 C 104.248 -93.4082 130.42 -67.2363 130.42 -35.1074 C 130.42 -2.97852 104.248 23.2422 72.1191 23.2422 Z M 74.5117 -6.98242 C 75.3418 -6.98242 75.8789 -7.56836 75.8789 -8.30078 L 75.8789 -62.1582 C 75.8789 -63.0371 75.0977 -63.623 74.2188 -63.623 C 73.5352 -63.623 72.998 -63.4277 72.1191 -62.793 L 58.3008 -53.9551 C 57.7148 -53.6133 57.5195 -53.1738 57.5195 -52.5879 C 57.5195 -51.8066 58.1543 -51.2207 58.9355 -51.2207 C 59.1797 -51.2207 59.375 -51.2695 59.5215 -51.3672 L 72.8516 -59.9121 L 73.1445 -59.9121 L 73.1445 -8.30078 C 73.1445 -7.56836 73.7793 -6.98242 74.5117 -6.98242 Z"/>
  </g>
  <g id="Black-M" transform="matrix(1 0 0 1 2870.97 1126)">
   <path d="M 62.4023 18.457 C 91.9922 18.457 116.113 -5.61523 116.113 -35.2051 C 116.113 -64.7949 91.9922 -88.8672 62.4023 -88.8672 C 32.8125 -88.8672 8.74023 -64.7949 8.74023 -35.2051 C 8.74023 -5.61523 32.8125 18.457 62.4023 18.457 Z M 62.4023 0.195312 C 42.8711 0.195312 27.002 -15.625 27.002 -35.2051 C 27.002 -54.7363 42.8711 -70.6055 62.4023 -70.6055 C 81.9824 -70.6055 97.8027 -54.7363 97.8027 -35.2051 C 97.8027 -15.625 81.9824 0.195312 62.4023 0.195312 Z M 66.1133 -13.0859 C 71.1426 -13.0859 74.707 -15.625 74.707 -21.8262 L 74.707 -48.6816 C 74.707 -53.8086 70.5078 -57.4219 64.6973 -57.4219 C 61.1328 -57.4219 58.1543 -56.4941 54.541 -54.1992 L 47.7051 -49.8047 C 45.2637 -48.1934 44.043 -46.4355 44.043 -43.7988 C 44.043 -40.5273 46.2891 -38.0859 49.5117 -38.0859 C 50.8789 -38.0859 51.709 -38.2812 53.5156 -39.4531 L 57.0312 -41.7969 L 57.5684 -41.7969 L 57.5684 -21.8262 C 57.5684 -15.625 61.0352 -13.0859 66.1133 -13.0859 Z"/>
  </g>
  <g id="Heavy-M" transform="matrix(1 0 0 1 2575.19 1126)">
   <path d="M 61.5234 17.5781 C 90.5273 17.5781 114.258 -6.15234 114.258 -35.2051 C 114.258 -64.2578 90.5273 -87.9883 61.4746 -87.9883 C 32.4707 -87.9883 8.74023 -64.2578 8.74023 -35.2051 C 8.74023 -6.15234 32.4707 17.5781 61.5234 17.5781 Z M 61.5234 1.66016 C 41.1133 1.66016 24.6582 -14.8438 24.6582 -35.2051 C 24.6582 -55.5664 41.1133 -72.0703 61.4746 -72.0703 C 81.8848 -72.0703 98.3398 -55.5664 98.3398 -35.2051 C 98.3398 -14.8438 81.8848 1.66016 61.5234 1.66016 Z M 64.8926 -13.0859 C 69.3359 -13.0859 72.4121 -15.4297 72.4121 -20.8008 L 72.4121 -49.7559 C 72.4121 -54.2969 68.8477 -57.4707 63.8184 -57.4707 C 60.6445 -57.4707 58.0566 -56.6406 54.7852 -54.4922 L 47.5098 -49.7559 C 45.3613 -48.3887 44.3359 -46.8262 44.3359 -44.5312 C 44.3359 -41.6504 46.3867 -39.4531 49.1699 -39.4531 C 50.4395 -39.4531 51.1719 -39.6484 52.832 -40.7227 L 56.9824 -43.5059 L 57.4707 -43.5059 L 57.4707 -20.8008 C 57.4707 -15.4297 60.4492 -13.0859 64.8926 -13.0859 Z"/>
  </g>
  <g id="Bold-M" transform="matrix(1 0 0 1 2279.5 1126)">
   <path d="M 60.498 16.5039 C 88.8672 16.5039 112.207 -6.78711 112.207 -35.2051 C 112.207 -63.623 88.8672 -86.9629 60.4492 -86.9629 C 32.0312 -86.9629 8.74023 -63.623 8.74023 -35.2051 C 8.74023 -6.78711 32.0801 16.5039 60.498 16.5039 Z M 60.498 3.22266 C 39.1602 3.22266 22.0703 -13.916 22.0703 -35.2051 C 22.0703 -56.4941 39.1602 -73.6816 60.4492 -73.6816 C 81.7383 -73.6816 98.9258 -56.4941 98.9258 -35.2051 C 98.9746 -13.916 81.7871 3.22266 60.498 3.22266 Z M 63.5742 -13.0371 C 67.334 -13.0371 69.8242 -15.1367 69.8242 -19.6289 L 69.8242 -50.8789 C 69.8242 -54.834 66.9922 -57.4707 62.7441 -57.4707 C 60.0586 -57.4707 57.959 -56.7871 55.0781 -54.8828 L 47.3145 -49.707 C 45.5078 -48.5352 44.7266 -47.2656 44.7266 -45.3613 C 44.7266 -42.9199 46.4355 -41.0156 48.8281 -41.0156 C 49.9023 -41.0156 50.5371 -41.1621 52.002 -42.1387 L 56.9336 -45.4102 L 57.373 -45.4102 L 57.373 -19.6289 C 57.373 -15.1367 59.8145 -13.0371 63.5742 -13.0371 Z"/>
  </g>
  <g id="Semibold-M" transform="matrix(1 0 0 1 1983.5 1126)">
   <path d="M 59.7656 15.8203 C 87.7441 15.8203 110.791 -7.22656 110.791 -35.2051 C 110.791 -63.1836 87.6953 -86.2793 59.7656 -86.2793 C 31.7871 -86.2793 8.74023 -63.1836 8.74023 -35.2051 C 8.74023 -7.22656 31.7871 15.8203 59.7656 15.8203 Z M 59.7656 4.3457 C 37.8418 4.3457 20.2637 -13.2812 20.2637 -35.2051 C 20.2637 -57.1289 37.793 -74.8047 59.7656 -74.8047 C 81.6895 -74.8047 99.3164 -57.1289 99.3652 -35.2051 C 99.3652 -13.2812 81.6895 4.3457 59.7656 4.3457 Z M 62.6465 -13.0371 C 65.9668 -13.0371 68.0664 -14.9902 68.0664 -18.7988 L 68.0664 -51.709 C 68.0664 -55.2246 65.6738 -57.4707 62.0605 -57.4707 C 59.668 -57.4707 57.8613 -56.8359 55.3223 -55.127 L 47.168 -49.6582 C 45.6055 -48.6816 44.9707 -47.5586 44.9707 -45.8984 C 44.9707 -43.7988 46.4844 -42.0898 48.584 -42.0898 C 49.5117 -42.0898 50.1465 -42.2363 51.4648 -43.1152 L 56.8848 -46.7285 L 57.2754 -46.7285 L 57.2754 -18.7988 C 57.2754 -14.9902 59.375 -13.0371 62.6465 -13.0371 Z"/>
  </g>
  <g id="Medium-M" transform="matrix(1 0 0 1 1687.3 1126)">
   <path d="M 59.2285 15.2832 C 86.9141 15.2832 109.766 -7.56836 109.766 -35.2051 C 109.766 -62.8906 86.8652 -85.7422 59.1797 -85.7422 C 31.543 -85.7422 8.74023 -62.8906 8.74023 -35.2051 C 8.74023 -7.56836 31.5918 15.2832 59.2285 15.2832 Z M 59.2285 5.17578 C 36.8164 5.17578 18.8965 -12.8418 18.8965 -35.2051 C 18.8965 -57.6172 36.8164 -75.6348 59.1797 -75.6348 C 81.5918 -75.6348 99.6094 -57.6172 99.6582 -35.2051 C 99.707 -12.8418 81.6406 5.17578 59.2285 5.17578 Z M 61.9141 -13.0371 C 64.8926 -13.0371 66.6992 -14.8438 66.6992 -18.2129 L 66.6992 -52.2949 C 66.6992 -55.5176 64.6973 -57.4707 61.5234 -57.4707 C 59.4238 -57.4707 57.8125 -56.9336 55.4688 -55.3223 L 47.0215 -49.6582 C 45.7031 -48.7305 45.1172 -47.8027 45.1172 -46.3379 C 45.1172 -44.4824 46.5332 -42.9199 48.3887 -42.9199 C 49.2188 -42.9199 49.8047 -43.0176 51.0742 -43.8477 L 56.8848 -47.7051 L 57.2266 -47.7051 L 57.2266 -18.2129 C 57.2266 -14.8438 59.0332 -13.0371 61.9141 -13.0371 Z"/>
  </g>
  <g id="Regular-M" transform="matrix(1 0 0 1 1391.3 1126)">
   <path d="M 58.5449 14.5508 C 85.791 14.5508 108.35 -8.00781 108.35 -35.2539 C 108.35 -62.4512 85.7422 -85.0586 58.4961 -85.0586 C 31.2988 -85.0586 8.74023 -62.4512 8.74023 -35.2539 C 8.74023 -8.00781 31.3477 14.5508 58.5449 14.5508 Z M 58.5449 6.25 C 35.498 6.25 17.0898 -12.207 17.0898 -35.2539 C 17.0898 -58.252 35.4492 -76.7578 58.4961 -76.7578 C 81.543 -76.7578 100 -58.252 100.049 -35.2539 C 100.098 -12.207 81.5918 6.25 58.5449 6.25 Z M 61.0352 -13.0371 C 63.5254 -13.0371 64.9414 -14.6484 64.9414 -17.4316 L 64.9414 -53.0762 C 64.9414 -55.9082 63.4277 -57.5195 60.791 -57.5195 C 59.0332 -57.5195 57.7637 -57.0312 55.6641 -55.5664 L 46.875 -49.6094 C 45.8008 -48.877 45.3613 -48.0957 45.3613 -46.875 C 45.3613 -45.3613 46.582 -43.9941 48.1445 -43.9941 C 48.877 -43.9941 49.4141 -44.0918 50.4883 -44.8242 L 56.8359 -49.0234 L 57.1777 -49.0234 L 57.1777 -17.4316 C 57.1777 -14.6484 58.5938 -13.0371 61.0352 -13.0371 Z"/>
  </g>
  <g id="Light-M" transform="matrix(1 0 0 1 1095.42 1126)">
   <path d="M 57.7148 13.7695 C 84.5215 13.7695 106.689 -8.39844 106.689 -35.2051 C 106.689 -62.0117 84.5215 -84.1797 57.666 -84.1797 C 30.8594 -84.1797 8.74023 -62.0117 8.74023 -35.2051 C 8.74023 -8.39844 30.9082 13.7695 57.7148 13.7695 Z M 57.7148 7.4707 C 34.082 7.4707 15.0879 -11.5723 15.0879 -35.2051 C 15.0879 -58.8379 34.082 -77.832 57.666 -77.832 C 81.2988 -77.832 100.342 -58.8379 100.391 -35.2051 C 100.391 -11.5723 81.3477 7.4707 57.7148 7.4707 Z M 60.0098 -13.1348 C 61.9629 -13.1348 63.0371 -14.4043 63.0371 -16.4551 L 63.0371 -54.0039 C 63.0371 -56.2012 61.8164 -57.4219 59.7656 -57.4219 C 58.3984 -57.4219 57.373 -57.0312 55.7129 -55.9082 L 46.3379 -49.6582 C 45.459 -49.0723 45.1172 -48.4375 45.1172 -47.4609 C 45.1172 -46.1914 46.0938 -45.1172 47.3633 -45.1172 C 47.9492 -45.1172 48.3398 -45.2148 49.1699 -45.752 L 56.6895 -50.6836 L 57.0312 -50.6836 L 57.0312 -16.4551 C 57.0312 -14.4043 58.1543 -13.1348 60.0098 -13.1348 Z"/>
  </g>
  <g id="Thin-M" transform="matrix(1 0 0 1 799.806 1126)">
   <path d="M 56.6406 12.7441 C 82.9102 12.7441 104.492 -8.83789 104.492 -35.1562 C 104.492 -61.4746 82.9102 -83.0566 56.5918 -83.0566 C 30.3223 -83.0566 8.74023 -61.4746 8.74023 -35.1562 C 8.74023 -8.83789 30.3223 12.7441 56.6406 12.7441 Z M 56.6406 8.98438 C 32.2266 8.98438 12.4512 -10.791 12.4512 -35.1562 C 12.4512 -59.5215 32.2266 -79.2969 56.5918 -79.2969 C 81.0059 -79.2969 100.781 -59.5215 100.781 -35.1562 C 100.781 -10.791 81.0059 8.98438 56.6406 8.98438 Z M 58.6914 -13.2812 C 59.8633 -13.2812 60.5469 -14.0625 60.5469 -15.2344 L 60.5469 -55.2734 C 60.5469 -56.543 59.668 -57.3242 58.4473 -57.3242 C 57.5684 -57.3242 56.8848 -57.0801 55.8105 -56.2988 L 45.6543 -49.707 C 45.0195 -49.3164 44.7754 -48.8281 44.7754 -48.1934 C 44.7754 -47.3145 45.5078 -46.582 46.3379 -46.582 C 46.7285 -46.582 46.9727 -46.6797 47.3633 -46.9238 L 56.543 -52.8809 L 56.8359 -52.8809 L 56.8359 -15.2344 C 56.8359 -14.0625 57.5684 -13.2812 58.6914 -13.2812 Z"/>
  </g>
  <g id="Ultralight-M" transform="matrix(1 0 0 1 503.656 1126)">
   <path d="M 56.0547 12.207 C 82.0801 12.207 103.369 -9.08203 103.369 -35.1562 C 103.369 -61.1816 82.0801 -82.4707 56.0547 -82.4707 C 30.0293 -82.4707 8.74023 -61.1816 8.74023 -35.1562 C 8.74023 -9.08203 30.0293 12.207 56.0547 12.207 Z M 56.0547 9.81445 C 31.2988 9.81445 11.1328 -10.3516 11.1328 -35.1562 C 11.1328 -59.9121 31.2988 -80.0781 56.0547 -80.0781 C 80.8594 -80.0781 100.977 -59.9121 100.977 -35.1562 C 100.977 -10.3516 80.8594 9.81445 56.0547 9.81445 Z M 57.959 -13.3301 C 58.7402 -13.3301 59.2285 -13.8672 59.2285 -14.5996 L 59.2285 -55.8594 C 59.2285 -56.7383 58.5938 -57.2754 57.7148 -57.2754 C 57.1289 -57.2754 56.6406 -57.0801 55.8594 -56.543 L 45.3125 -49.707 C 44.8242 -49.4141 44.6289 -49.0723 44.6289 -48.584 C 44.6289 -47.9004 45.166 -47.3633 45.8496 -47.3633 C 46.0938 -47.3633 46.2402 -47.4121 46.4355 -47.5098 L 56.4941 -54.0039 L 56.7383 -54.0039 L 56.7383 -14.5996 C 56.7383 -13.8672 57.2754 -13.3301 57.959 -13.3301 Z"/>
  </g>
  <g id="Black-S" transform="matrix(1 0 0 1 2884.57 696)">
   <path d="M 48.8281 6.78711 C 71.9727 6.78711 90.8203 -12.0605 90.8203 -35.2051 C 90.8203 -58.3496 71.9727 -77.1973 48.8281 -77.1973 C 25.6836 -77.1973 6.83594 -58.3496 6.83594 -35.2051 C 6.83594 -12.0605 25.6836 6.78711 48.8281 6.78711 Z M 48.8281 -7.37305 C 33.4473 -7.37305 20.9961 -19.8242 20.9961 -35.2051 C 20.9961 -50.5859 33.4473 -63.0371 48.8281 -63.0371 C 64.209 -63.0371 76.6602 -50.5859 76.6602 -35.2051 C 76.6602 -19.8242 64.209 -7.37305 48.8281 -7.37305 Z M 51.709 -17.8711 C 55.6152 -17.8711 58.3496 -19.873 58.3496 -24.6582 L 58.3496 -45.8496 C 58.3496 -49.8047 55.127 -52.6367 50.6348 -52.6367 C 47.8516 -52.6367 45.5566 -51.9043 42.7246 -50.0977 L 37.3535 -46.6309 C 35.4492 -45.4102 34.5215 -44.043 34.5215 -41.9922 C 34.5215 -39.4531 36.2793 -37.5488 38.7695 -37.5488 C 39.8438 -37.5488 40.4785 -37.6953 41.8945 -38.623 L 44.6777 -40.4785 L 45.0684 -40.4785 L 45.0684 -24.6582 C 45.0684 -19.873 47.7539 -17.8711 51.709 -17.8711 Z"/>
  </g>
  <g id="Heavy-S" transform="matrix(1 0 0 1 2588.47 696)">
   <path d="M 48.2422 6.15234 C 70.9961 6.15234 89.5996 -12.4512 89.5996 -35.2051 C 89.5996 -57.959 70.9961 -76.6113 48.1934 -76.6113 C 25.4395 -76.6113 6.83594 -57.959 6.83594 -35.2051 C 6.83594 -12.4512 25.4395 6.15234 48.2422 6.15234 Z M 48.2422 -6.39648 C 32.2754 -6.39648 19.4336 -19.2871 19.4336 -35.2051 C 19.4336 -51.1719 32.2754 -64.0137 48.1934 -64.0137 C 64.1602 -64.0137 77.002 -51.1719 77.0508 -35.2051 C 77.0508 -19.2871 64.1602 -6.39648 48.2422 -6.39648 Z M 50.8789 -17.8711 C 54.3945 -17.8711 56.7871 -19.7266 56.7871 -23.9746 L 56.7871 -46.5332 C 56.7871 -50.1465 54.0527 -52.6367 50.0488 -52.6367 C 47.5586 -52.6367 45.5078 -52.002 42.9199 -50.293 L 37.2559 -46.582 C 35.5957 -45.5078 34.7656 -44.2871 34.7656 -42.4805 C 34.7656 -40.2344 36.377 -38.4766 38.623 -38.4766 C 39.5996 -38.4766 40.1855 -38.623 41.5039 -39.502 L 44.6289 -41.6016 L 45.0195 -41.6016 L 45.0195 -23.9746 C 45.0195 -19.7266 47.3633 -17.8711 50.8789 -17.8711 Z"/>
  </g>
  <g id="Bold-S" transform="matrix(1 0 0 1 2292.44 696)">
   <path d="M 47.5586 5.46875 C 69.873 5.46875 88.2324 -12.8906 88.2324 -35.2051 C 88.2324 -57.5684 69.873 -75.9277 47.5098 -75.9277 C 25.1953 -75.9277 6.83594 -57.5684 6.83594 -35.2051 C 6.83594 -12.8906 25.1953 5.46875 47.5586 5.46875 Z M 47.5586 -5.32227 C 30.957 -5.32227 17.6758 -18.6523 17.6758 -35.2051 C 17.6758 -51.8066 30.957 -65.1367 47.5098 -65.1367 C 64.1113 -65.1367 77.4414 -51.8066 77.4414 -35.2051 C 77.4414 -18.6523 64.1113 -5.32227 47.5586 -5.32227 Z M 50 -17.8223 C 53.0762 -17.8223 55.0781 -19.5801 55.0781 -23.1934 L 55.0781 -47.3145 C 55.0781 -50.5371 52.7832 -52.6855 49.3652 -52.6855 C 47.2168 -52.6855 45.459 -52.0996 43.1641 -50.5859 L 37.1582 -46.582 C 35.7422 -45.6055 35.1074 -44.6289 35.1074 -43.0176 C 35.1074 -41.1133 36.4746 -39.5508 38.4277 -39.5508 C 39.3066 -39.5508 39.8438 -39.6484 41.0645 -40.4785 L 44.6289 -42.8711 L 44.9707 -42.8711 L 44.9707 -23.1934 C 44.9707 -19.5801 46.9238 -17.8223 50 -17.8223 Z"/>
  </g>
  <g id="Semibold-S" transform="matrix(1 0 0 1 1996.2 696)">
   <path d="M 47.0703 4.98047 C 69.0918 4.98047 87.3047 -13.1836 87.3047 -35.2539 C 87.3047 -57.2754 69.0918 -75.4883 47.0215 -75.4883 C 25 -75.4883 6.83594 -57.2754 6.83594 -35.2539 C 6.83594 -13.1836 25.0488 4.98047 47.0703 4.98047 Z M 47.0703 -4.58984 C 30.0781 -4.58984 16.4551 -18.2129 16.4551 -35.2539 C 16.4551 -52.2461 30.0293 -65.8691 47.0215 -65.8691 C 64.0625 -65.8691 77.6855 -52.2461 77.7344 -35.2539 C 77.7344 -18.2129 64.0625 -4.58984 47.0703 -4.58984 Z M 49.3652 -17.8223 C 52.1484 -17.8223 53.9062 -19.4336 53.9062 -22.6562 L 53.9062 -47.8516 C 53.9062 -50.8301 51.9531 -52.6855 48.9258 -52.6855 C 46.9727 -52.6855 45.459 -52.1484 43.3105 -50.7324 L 37.1094 -46.5332 C 35.8398 -45.7031 35.3027 -44.8242 35.3027 -43.4082 C 35.3027 -41.6992 36.5723 -40.2832 38.2812 -40.2832 C 39.0625 -40.2832 39.5996 -40.3809 40.7715 -41.1621 L 44.5801 -43.7012 L 44.9219 -43.7012 L 44.9219 -22.6562 C 44.9219 -19.4336 46.6309 -17.8223 49.3652 -17.8223 Z"/>
  </g>
  <g id="Medium-S" transform="matrix(1 0 0 1 1699.83 696)">
   <path d="M 46.7285 4.63867 C 68.5547 4.63867 86.6211 -13.4277 86.6211 -35.2539 C 86.6211 -57.0312 68.5059 -75.1465 46.6797 -75.1465 C 24.8535 -75.1465 6.83594 -57.0312 6.83594 -35.2539 C 6.83594 -13.4277 24.9023 4.63867 46.7285 4.63867 Z M 46.7285 -4.00391 C 29.3945 -4.00391 15.5273 -17.9199 15.5273 -35.2539 C 15.5273 -52.5879 29.3457 -66.4551 46.6797 -66.4551 C 64.0137 -66.4551 77.8809 -52.5879 77.9297 -35.2539 C 77.9785 -17.9199 64.0625 -4.00391 46.7285 -4.00391 Z M 48.877 -17.8223 C 51.4648 -17.8223 52.9785 -19.3359 52.9785 -22.2656 L 52.9785 -48.2422 C 52.9785 -51.0254 51.3184 -52.6855 48.584 -52.6855 C 46.7773 -52.6855 45.4102 -52.2461 43.4082 -50.8789 L 37.0605 -46.5332 C 35.9375 -45.752 35.4492 -44.9707 35.4492 -43.7012 C 35.4492 -42.1875 36.6211 -40.8203 38.1836 -40.8203 C 38.916 -40.8203 39.4043 -40.918 40.5273 -41.6504 L 44.5801 -44.3848 L 44.873 -44.3848 L 44.873 -22.2656 C 44.873 -19.3359 46.4355 -17.8223 48.877 -17.8223 Z"/>
  </g>
  <g id="Regular-S" transform="matrix(1 0 0 1 1403.58 696)">
   <path d="M 46.2402 4.15039 C 67.7734 4.15039 85.6934 -13.7207 85.6934 -35.2539 C 85.6934 -56.7871 67.7246 -74.6582 46.1914 -74.6582 C 24.707 -74.6582 6.83594 -56.7871 6.83594 -35.2539 C 6.83594 -13.7207 24.7559 4.15039 46.2402 4.15039 Z M 46.2402 -3.27148 C 28.5156 -3.27148 14.3555 -17.4805 14.3555 -35.2539 C 14.3555 -53.0273 28.4668 -67.2363 46.1914 -67.2363 C 63.9648 -67.2363 78.1738 -53.0273 78.2227 -35.2539 C 78.2715 -17.4805 64.0137 -3.27148 46.2402 -3.27148 Z M 48.291 -17.7734 C 50.5371 -17.7734 51.8066 -19.2383 51.8066 -21.7285 L 51.8066 -48.7793 C 51.8066 -51.3184 50.4883 -52.7344 48.1445 -52.7344 C 46.5332 -52.7344 45.4102 -52.2949 43.5547 -51.0254 L 36.9629 -46.4844 C 36.0352 -45.8496 35.6445 -45.166 35.6445 -44.0918 C 35.6445 -42.7734 36.7188 -41.5527 38.0859 -41.5527 C 38.7207 -41.5527 39.209 -41.6504 40.2344 -42.334 L 44.5801 -45.2148 L 44.873 -45.2148 L 44.873 -21.7285 C 44.873 -19.2383 46.1426 -17.7734 48.291 -17.7734 Z"/>
  </g>
  <g id="Light-S" transform="matrix(1 0 0 1 1107.6 696)">
   <path d="M 45.5078 3.4668 C 66.6992 3.4668 84.2285 -14.0625 84.2285 -35.2051 C 84.2285 -56.3965 66.6504 -73.9258 45.5078 -73.9258 C 24.3164 -73.9258 6.83594 -56.3965 6.83594 -35.2051 C 6.83594 -14.0625 24.3652 3.4668 45.5078 3.4668 Z M 45.5078 -2.24609 C 27.2461 -2.24609 12.5977 -16.9434 12.5977 -35.2051 C 12.5977 -53.5156 27.1973 -68.2129 45.5078 -68.2129 C 63.7695 -68.2129 78.4668 -53.5156 78.5156 -35.2051 C 78.5156 -16.9434 63.8184 -2.24609 45.5078 -2.24609 Z M 47.3633 -17.8711 C 49.1211 -17.8711 50.0977 -18.9941 50.0977 -20.8984 L 50.0977 -49.6094 C 50.0977 -51.5625 49.0234 -52.6367 47.2168 -52.6367 C 45.9961 -52.6367 45.0684 -52.2949 43.6035 -51.3184 L 36.5234 -46.5332 C 35.7422 -45.9961 35.4492 -45.459 35.4492 -44.5801 C 35.4492 -43.5059 36.2793 -42.5293 37.4023 -42.5293 C 37.8906 -42.5293 38.2812 -42.627 39.0137 -43.1152 L 44.4824 -46.6797 L 44.7266 -46.6797 L 44.7266 -20.8984 C 44.7266 -18.9941 45.7031 -17.8711 47.3633 -17.8711 Z"/>
  </g>
  <g id="Thin-S" transform="matrix(1 0 0 1 811.867 696)">
   <path d="M 44.5801 2.53906 C 65.2832 2.53906 82.2754 -14.4531 82.2754 -35.2051 C 82.2754 -55.9082 65.2344 -72.9004 44.5312 -72.9004 C 23.8281 -72.9004 6.83594 -55.9082 6.83594 -35.2051 C 6.83594 -14.4531 23.877 2.53906 44.5801 2.53906 Z M 44.5801 -0.878906 C 25.5859 -0.878906 10.2539 -16.2109 10.2539 -35.2051 C 10.2539 -54.1504 25.5859 -69.4824 44.5312 -69.4824 C 63.5254 -69.4824 78.8574 -54.1504 78.8574 -35.2051 C 78.8574 -16.2109 63.5254 -0.878906 44.5801 -0.878906 Z M 46.1914 -17.9688 C 47.2656 -17.9688 47.9004 -18.7012 47.9004 -19.7754 L 47.9004 -50.6836 C 47.9004 -51.8555 47.168 -52.5391 46.0449 -52.5391 C 45.2637 -52.5391 44.6777 -52.3438 43.7012 -51.6602 L 35.8887 -46.5332 C 35.3516 -46.1914 35.1562 -45.8008 35.1562 -45.2148 C 35.1562 -44.4824 35.7422 -43.8477 36.5234 -43.8477 C 36.8164 -43.8477 37.0605 -43.8965 37.4512 -44.1406 L 44.3359 -48.6328 L 44.5312 -48.6328 L 44.5312 -19.7754 C 44.5312 -18.7012 45.2148 -17.9688 46.1914 -17.9688 Z"/>
  </g>
  <g id="Ultralight-S" transform="matrix(1 0 0 1 515.644 696)">
   <path d="M 44.043 2.05078 C 64.502 2.05078 81.2988 -14.6973 81.2988 -35.1562 C 81.2988 -55.6152 64.502 -72.3633 44.043 -72.3633 C 23.584 -72.3633 6.83594 -55.6152 6.83594 -35.1562 C 6.83594 -14.6973 23.584 2.05078 44.043 2.05078 Z M 44.043 -0.146484 C 24.7559 -0.146484 9.08203 -15.8691 9.08203 -35.1562 C 9.08203 -54.4434 24.7559 -70.166 44.043 -70.166 C 63.3789 -70.166 79.0527 -54.4434 79.0527 -35.1562 C 79.0527 -15.8691 63.3789 -0.146484 44.043 -0.146484 Z M 45.6055 -18.0664 C 46.2891 -18.0664 46.7285 -18.5547 46.7285 -19.2383 L 46.7285 -51.2207 C 46.7285 -52.002 46.1914 -52.4902 45.4102 -52.4902 C 44.873 -52.4902 44.4336 -52.3438 43.75 -51.8555 L 35.5469 -46.582 C 35.1562 -46.2891 35.0098 -45.9961 35.0098 -45.5566 C 35.0098 -45.0195 35.4492 -44.5312 36.0352 -44.5312 C 36.2793 -44.5312 36.4258 -44.5801 36.6211 -44.6777 L 44.2383 -49.6094 L 44.4336 -49.6094 L 44.4336 -19.2383 C 44.4336 -18.5547 44.9219 -18.0664 45.6055 -18.0664 Z"/>
  </g>
 </g>
</svg>
